Division,WeightClassKg,Place,Name,Team,BodyweightKg,Best3SquatKg,Best3BenchKg,Best3DeadliftKg,TotalKg,Equipment,Event,Sex
Boys,51.71,1,Sam Collier,Lake Dallas,51.17,124.74,92.99,142.88,360.61,Single-ply,SBD,M
Boys,51.71,2,Jayvon Bailey,Carrollton Smith,51.71,111.13,63.5,113.4,288.03,Single-ply,SBD,M
Boys,51.71,3,Gianluca Figueroa,Carrollton Smith,48.26,104.33,56.7,124.74,285.76,Single-ply,SBD,M
Boys,55.79,1,Gabriel Price,Frisco,53.07,113.4,56.7,127.01,297.1,Single-ply,SBD,M
Boys,55.79,2,James Washington,Carrollton Ranchview,55.79,111.13,56.7,127.01,294.84,Single-ply,SBD,M
Boys,59.87,1,Jose Peraza,Carrollton Smith,59.87,147.42,88.45,170.1,405.97,Single-ply,SBD,M
Boys,59.87,2,John Tran,Carrollton Creekview,58.6,140.61,92.99,170.1,403.7,Single-ply,SBD,M
Boys,59.87,3,Andrew Mast,Carrollton Creekview,59.87,136.08,86.18,138.35,360.61,Single-ply,SBD,M
Boys,59.87,4,Zion Walker,Carrollton Creekview,58.51,138.35,72.57,142.88,353.8,Single-ply,SBD,M
Boys,59.87,5,Aaron Martin #2,Lake Dallas,58.69,111.13,65.77,131.54,308.44,Single-ply,SBD,M
Boys,59.87,6,Izaiah Cooper,Lake Dallas,58.69,83.91,52.16,102.06,238.14,Single-ply,SBD,M
Boys,67.13,1,Camron Gray,Carrollton Creekview,67.04,204.12,104.33,208.65,517.1,Single-ply,SBD,M
Boys,67.13,2,David Thompson,Carrollton Creekview,67.13,183.7,111.13,199.58,494.42,Single-ply,SBD,M
Boys,67.13,3,Aaron Cyrus,Carrollton Creekview,66.68,176.9,102.06,183.7,462.66,Single-ply,SBD,M
Boys,67.13,4,Donovan Smith,Carrollton Turner,66.86,158.76,102.06,181.44,442.25,Single-ply,SBD,M
Boys,67.13,5,Damian Alston,Carrollton Smith,66.13,174.63,83.91,156.49,415.04,Single-ply,SBD,M
Boys,67.13,6,Kasey Nguyen,Carrollton Creekview,67.04,165.56,88.45,151.95,405.97,Single-ply,SBD,M
Boys,67.13,7,Caleb McKnight,Carrollton Ranchview,66.95,142.88,95.25,149.69,387.82,Single-ply,SBD,M
Boys,67.13,8,Dillon Pepper,Euless Trinity,65.77,142.88,72.57,158.76,374.21,Single-ply,SBD,M
Boys,67.13,9,Drew McKinney,Lake Dallas,60.42,129.27,70.31,147.42,347,Single-ply,SBD,M
Boys,67.13,10,Rory Smith,Carrollton Ranchview,62.32,120.2,72.57,149.69,342.46,Single-ply,SBD,M
Boys,67.13,DQ,Stephen Garcia,Carrollton Creekview,66.13,142.88,86.18,,,Single-ply,SBD,M
Boys,74.84,1,Isai Pena,Carrollton Creekview,73.94,222.26,122.47,226.8,571.53,Single-ply,SBD,M
Boys,74.84,2,Rickie Brown,Carrollton Creekview,70.76,172.37,104.33,174.63,451.32,Single-ply,SBD,M
Boys,74.84,3,Austin Rutman,Lake Dallas,70.67,154.22,88.45,158.76,401.43,Single-ply,SBD,M
Boys,74.84,4,Mason Jeter,Lake Dallas,71.03,138.35,83.91,176.9,399.16,Single-ply,SBD,M
Boys,74.84,5,Genesis Solomon,Carrollton Turner,73.66,147.42,88.45,163.29,399.16,Single-ply,SBD,M
Boys,74.84,6,Hunter Parker,Carrollton Turner,73.84,124.74,95.25,140.61,360.61,Single-ply,SBD,M
Boys,74.84,7,Heynar Berrios,Carrollton Creekview,72.39,117.93,74.84,142.88,335.66,Single-ply,SBD,M
Boys,74.84,8,Colin Bloomfield,Lake Dallas,70.94,90.72,74.84,145.15,310.71,Single-ply,SBD,M
Boys,74.84,DQ,Yosiah Augustine,Lake Dallas,69.31,92.99,,108.86,,Single-ply,SBD,M
Boys,82.1,1,Hung Tran,Carrollton Creekview,81.28,213.19,124.74,217.72,555.65,Single-ply,SBD,M
Boys,82.1,2,Troy McKnight,Carrollton Ranchview,79.65,206.38,115.67,215.46,537.51,Single-ply,SBD,M
Boys,82.1,3,Aaron Sanchez,Carrollton Turner,76.75,147.42,97.52,165.56,410.5,Single-ply,SBD,M
Boys,82.1,4,Josh Toyphommarath,Carrollton Creekview,79.65,147.42,95.25,154.22,396.89,Single-ply,SBD,M
Boys,82.1,5,Aidan Estabrooks,Frisco,79.56,131.54,97.52,165.56,394.63,Single-ply,SBD,M
Boys,82.1,6,Nathan Slabberts,Frisco,80.56,90.72,65.77,111.13,267.62,Single-ply,SBD,M
Boys,82.1,DQ,Harsh Patel,Frisco,79.02,,,115.67,,Single-ply,SBD,M
Boys,89.81,1,Corey Wyatt,Carrollton Smith,87.82,204.12,122.47,199.58,526.17,Single-ply,SBD,M
Boys,89.81,2,Ike Onyekwere,Lake Dallas,86.55,199.58,122.47,197.31,519.36,Single-ply,SBD,M
Boys,89.81,3,Ethan Griffin,Lake Dallas,87.54,199.58,104.33,197.31,501.22,Single-ply,SBD,M
Boys,89.81,4,Johnathan Synoground,Lake Dallas,86.18,190.51,92.99,188.24,471.74,Single-ply,SBD,M
Boys,89.81,5,Morgan Iroha,Euless Trinity,83.01,176.9,83.91,185.97,446.79,Single-ply,SBD,M
Boys,89.81,6,Josiah Robison,Carrollton Creekview,86.55,165.56,99.79,161.03,426.38,Single-ply,SBD,M
Boys,89.81,7,Nelson Viera,Carrollton Turner,84.28,147.42,79.38,149.69,376.48,Single-ply,SBD,M
Boys,89.81,8,Jada McCarter,Lake Dallas,85.28,127.01,74.84,131.54,333.39,Single-ply,SBD,M
Boys,89.81,9,Nico Annello,Frisco,82.46,108.86,70.31,124.74,303.91,Single-ply,SBD,M
Boys,89.81,DQ,Peyton Cox #2,Frisco,88.36,120.2,,131.54,,Single-ply,SBD,M
Boys,89.81,DQ,Cohen Finch,Lake Dallas,82.19,102.06,,136.08,,Single-ply,SBD,M
Boys,99.79,1,Kamari Wilkerson,Frisco,95.07,233.6,120.2,217.72,571.53,Single-ply,SBD,M
Boys,99.79,2,Nathaniel Bourne,Carrollton Smith,98.79,197.31,95.25,197.31,489.88,Single-ply,SBD,M
Boys,99.79,3,Kenmunta Miller,Frisco,97.7,181.44,102.06,181.44,464.93,Single-ply,SBD,M
Boys,99.79,4,Nathan Paik,Carrollton Ranchview,98.61,181.44,99.79,181.44,462.66,Single-ply,SBD,M
Boys,99.79,5,David Blair,Lake Dallas,99.43,165.56,106.59,183.7,455.86,Single-ply,SBD,M
Boys,99.79,6,Miguel Renteria,Carrollton Creekview,93.98,147.42,104.33,161.03,412.77,Single-ply,SBD,M
Boys,99.79,7,Jackson Berry,Lake Dallas,90.17,147.42,81.65,158.76,387.82,Single-ply,SBD,M
Boys,99.79,8,Miguel Frenandez,Frisco,97.89,108.86,108.86,151.95,369.68,Single-ply,SBD,M
Boys,99.79,9,Jackson Baker,Frisco,91.17,120.2,95.25,129.27,344.73,Single-ply,SBD,M
Boys,99.79,10,Goziem Onyewere,Lake Dallas,91.9,111.13,65.77,124.74,301.64,Single-ply,SBD,M
Boys,109.77,1,Michael Henderson,Carrollton Ranchview,107.77,199.58,133.81,219.99,553.38,Single-ply,SBD,M
Boys,109.77,2,Kevin MacDonald,Euless Trinity,106.41,185.97,117.93,219.99,523.9,Single-ply,SBD,M
Boys,109.77,3,Christian Jimenez,Carrollton Turner,104.96,197.31,124.74,188.24,510.29,Single-ply,SBD,M
Boys,109.77,4,Yornen Ortez,Carrollton Creekview,107.14,195.04,113.4,183.7,492.15,Single-ply,SBD,M
Boys,109.77,5,Amari Mapp,Euless Trinity,109.77,183.7,111.13,192.78,487.61,Single-ply,SBD,M
Boys,109.77,6,Tofa Sanft,Euless Trinity,102.51,172.37,102.06,142.88,417.3,Single-ply,SBD,M
Boys,109.77,7,Tristyn White,Euless Trinity,107.86,158.76,124.74,133.81,417.3,Single-ply,SBD,M
Boys,109.77,8,Brandon Dominguez,Carrollton Smith,103.87,165.56,88.45,154.22,408.23,Single-ply,SBD,M
Boys,109.77,9,Greer Rush,Frisco,109.32,117.93,92.99,131.54,342.46,Single-ply,SBD,M
Boys,109.77,10,Aj Shields,Lake Dallas,107.05,124.74,70.31,142.88,337.93,Single-ply,SBD,M
Boys,109.77,DQ,Hudson West,Euless Trinity,108.86,,102.06,174.63,,Single-ply,SBD,M
Boys,124.74,1,Antonio Reader,Carrollton Ranchview,114.67,226.8,102.06,208.65,537.51,Single-ply,SBD,M
Boys,124.74,2,David Aleamotua,Euless Trinity,124.19,215.46,136.08,174.63,526.17,Single-ply,SBD,M
Boys,124.74,3,Tony Baker,Carrollton Creekview,110.22,176.9,108.86,156.49,442.25,Single-ply,SBD,M
Boys,124.74,4,Devon Holder,Lake Dallas,112.76,165.56,90.72,179.17,435.45,Single-ply,SBD,M
Boys,124.74,5,Andrew Magana,Frisco,124.38,165.56,106.59,158.76,430.91,Single-ply,SBD,M
Boys,124.74,6,Efrian Guereca,Carrollton Turner,115.67,136.08,106.59,145.15,387.82,Single-ply,SBD,M
Boys,124.74,DQ,Poukesi Vakauta,Euless Trinity,120.11,197.31,,192.78,,Single-ply,SBD,M
Boys,124.74+,1,Sau Saafi,Euless Trinity,137.26,244.94,124.74,185.97,555.65,Single-ply,SBD,M
Boys,124.74+,2,Lotu Asaeli,Euless Trinity,130.73,229.06,120.2,183.7,532.97,Single-ply,SBD,M
Boys,124.74+,3,Malaki Katoa,Euless Trinity,192.32,174.63,127.01,172.37,474,Single-ply,SBD,M
Boys,124.74+,4,Major Ervin,Carrollton Turner,137.26,151.95,136.08,172.37,460.4,Single-ply,SBD,M
Boys,124.74+,5,Michael Soileau,Lake Dallas,125.55,215.46,,183.7,399.16,Single-ply,SD,M
Boys,124.74+,6,Alek Llanes,Carrollton Ranchview,143.15,124.74,61.23,158.76,344.73,Single-ply,SBD,M
Boys,124.74+,DQ,Jalen Moore,Carrollton Smith,142.7,,,,,Single-ply,SBD,M
Boys,,NS,Donovan Carter #3,Carrollton Ranchview,,,,,,Single-ply,SBD,M
Boys,,NS,Clevon Harmon,Carrollton Ranchview,,,,,,Single-ply,SBD,M
Boys,,NS,Austin Arvizo,Lake Dallas,,,,,,Single-ply,SBD,M
