﻿                                                                                                    BK BENCH - DEADLIFT                                29/05/2010
BDFPF                       Deadlift Unequiped       Verslag
W.Cat   Name                                                               Age  Cat   BW            1                     2       3                    4            Points
- 63 KG        Wuyts        Helen                V   Gilberts Gym     18   T3              59,00    150                   160     167,5                0            146,144
- 70 KG        Verkain      Jasmien              V   Isogym           19   T3              68,70    135                   145     150       --152,     -            115,23
- 70 KG        Lerot        Viviane              V   Castors          51   M3              65,00    90                    97,5    100                  0            80,42
67,5 KG        Eeckhout     Laurens                  M ite Gym Gent   14   T1              66,20    130                   140     150       -----15-                110,805
67,5 KG        Peeters      Alan                 M   Gilberts Gym     16   T2              67,40    150                   160     167,5                0            116,288
75 KG          Lefebvre     Jonas                M   KBBC             18   T3              74,60    150                   160     175                  0            116,778
75 KG          Tirifahy     Pierre               M   Castors          39   SR              74,90    150                   170     ----190              0            113,084
75 KG          Remy         Roger                M   Castors          57   M4              75,00    200                   215     ----225              0            142,868
75 KG          Callemeyn    Johny                M   Fit 4 fun        56   M4              74,20    170                   182,5   185                  0            123,969
82,5 KG        Hallewaert   Bart                 M   Isogym           41   M1              79,70    220                   232,5   ----240              0            147,568
90 KG          Goethals     Dries                M   KBBC             24   SR              83,40    160                   180     ----190              0            110,646
90 KG          Verbeke      Beny                 M   Isogym           44   M1              85,30    270                   290     ----300              0            175,595
90 KG          Theyssens    Martin                   M ite Gym Gent   70   M7              88,70    135                   147,5   157,5     --162,     -            93,0038
125 KG         Dechamps     Jerome               M   Castors          22   JR              123,90   250                   265     280,5                0            138,489
125 KG         Duflon       David                M   KBBC             35   SR              111,00   140                   150     160                  0            85,648
125 KG         Collart      Jean-Luc             M   Castors          50   M3              121,80   270                   275     0                    0            144,403
145 KG         Goovaerts    Marc                     M ite Gym Gent   52   M3              126,60   215                   220     230,5                240          119,653
