Place,Name,Sex,BirthDate,Age,Equipment,Division,BodyweightKg,WeightClassKg,Squat1Kg,Squat2Kg,Squat3Kg,Best3SquatKg,Bench1Kg,Bench2Kg,Bench3Kg,Best3BenchKg,Deadlift1Kg,Deadlift2Kg,Deadlift3Kg,Deadlift4Kg,Best3DeadliftKg,TotalKg,Event
1,Zoe Starr,F,1997-10-31,23,Wraps,FR-J,82,82.5,140,147.5,152.5,152.5,60,67.5,-72.5,67.5,125,135,145,,145,365,SBD
2,Brittany Jones,F,1997-04-17,23,Wraps,FR-J,81,82.5,145,-155,155,155,52.5,55,57.5,57.5,117.5,-125,127.5,,127.5,340,SBD
1,Breana Evans,F,1998-04-07,22,Wraps,FR-J,85.3,90,-110,110,-125,110,50,60,-75,60,110,125,-140,,125,295,SBD
1,Bec Crombie,F,1982-09-19,38,Wraps,FR-O,58,60,75,82.5,87.5,87.5,42.5,-45,-45,42.5,90,100,110,,110,240,SBD
1,Chantal Marais,F,1988-05-25,32,Wraps,FR-O,74.3,75,250,265,280,280,110,115,120,120,200,215,230,,230,630,SBD
1,Zoe Starr,F,1997-10-31,23,Wraps,FR-O,82,82.5,140,147.5,152.5,152.5,60,67.5,-72.5,67.5,125,135,145,,145,365,SBD
2,Brittany Jones,F,1997-04-17,23,Wraps,FR-O,81,82.5,145,-155,155,155,52.5,55,57.5,57.5,117.5,-125,127.5,,127.5,340,SBD
3,Kiana Puru,F,1996-06-23,24,Wraps,FR-O,78.5,82.5,70,77.5,82.5,82.5,50,55,60,60,95,105,110,,110,252.5,SBD
1,Jessica Nugent,F,1993-01-18,27,Wraps,FR-O,83.9,90,-100,-100,100,100,50,60,-65,60,110,120,135,,135,295,SBD
2,Breana Evans,F,1998-04-07,22,Wraps,FR-O,85.3,90,-110,110,-125,110,50,60,-75,60,110,125,-140,,125,295,SBD
1,Ashlea Brophy,F,1994-04-14,26,Wraps,FR-O,93.5,90+,110,120,130,130,50,55,60,60,115,130,140,,140,330,SBD
1,Chantelle Raso,F,1989-05-25,31,Raw,FR-O,64.6,67.5,,,,,,,,,110,117.5,125,,125,125,D
1,Erin Brown,F,1990-12-14,29,Raw,FR-O,86,90,,,,,,,,,130,145,160,,160,160,D
1,Jack Willis #1,M,1999-09-06,21,Wraps,MR-J,71.6,75,130,145,150,150,95,102.5,107.5,107.5,200,220,230,,230,487.5,SBD
1,Scott Cassidy,M,1997-12-10,22,Wraps,MR-J,81.3,82.5,165,175,185,185,100,107.5,112.5,112.5,190,205,-220,,205,502.5,SBD
1,Francis Pike,M,1997-08-17,23,Wraps,MR-J,87.95,90,-195,195,205,205,117.5,122.5,-125,122.5,272.5,290,-300,,290,617.5,SBD
1,Albert Campbell,M,1997-07-24,23,Wraps,MR-J,99.7,100,265,275,285,285,160,170,-180,170,220,232.5,245,,245,700,SBD
2,Eden Hill,M,1999-01-05,21,Wraps,MR-J,97,100,260,265,-275,265,115,122.5,-130,122.5,200,210,-212.5,,210,597.5,SBD
1,Ben Crombie,M,1977-02-09,43,Wraps,MR-M1,123.7,125,220,235,245,245,145,150,155,155,260,270,-280,,270,670,SBD
1,Luis Dowd,M,2002-11-12,18,Wraps,MR-O,65.8,67.5,125,135,140,140,100,105,-107.5,105,165,180,190,,190,435,SBD
1,Jack Willis #1,M,1999-09-06,21,Wraps,MR-O,71.6,75,130,145,150,150,95,102.5,107.5,107.5,200,220,230,,230,487.5,SBD
2,Joshua Dominello,M,2002-01-24,18,Wraps,MR-O,72,75,165,170,180,180,92.5,97.5,-105,97.5,172.5,182.5,187.5,,187.5,465,SBD
1,Connor Swords,M,2001-10-15,19,Wraps,MR-O,80.7,82.5,185,195,200,200,115,-120,120,120,200,215,220,,220,540,SBD
2,Charles Pike,M,2001-04-09,19,Wraps,MR-O,78.8,82.5,175,-185,-190,175,100,105,110,110,220,230,-240,,230,515,SBD
3,Scott Cassidy,M,1997-12-10,22,Wraps,MR-O,81.3,82.5,165,175,185,185,100,107.5,112.5,112.5,190,205,-220,,205,502.5,SBD
4,Mitch Helm,M,1996-09-07,24,Wraps,MR-O,82,82.5,140,152.5,-160,152.5,105,110,115,115,170,182.5,190,,190,457.5,SBD
5,Brenton Moore,M,1989-01-13,31,Wraps,MR-O,78.9,82.5,120,-130,130,130,-100,105,110,110,160,172.5,177.5,,177.5,417.5,SBD
6,Sean Welch,M,2002-01-20,18,Wraps,MR-O,79.7,82.5,112.5,122.5,130,130,80,85,90,90,150,165,-175,,165,385,SBD
1,Francis Pike,M,1997-08-17,23,Wraps,MR-O,87.95,90,-195,195,205,205,117.5,122.5,-125,122.5,272.5,290,-300,,290,617.5,SBD
2,Mitchell Prothero,M,1988-03-23,32,Wraps,MR-O,89.7,90,160,167.5,172.5,172.5,100,105,-107.5,105,155,162.5,-170,,162.5,440,SBD
1,Albert Campbell,M,1997-07-24,23,Wraps,MR-O,99.7,100,265,275,285,285,160,170,-180,170,220,232.5,245,,245,700,SBD
2,Stephen Ryan,M,1984-09-21,36,Wraps,MR-O,94.8,100,180,190,200,200,150,-160,-160,150,230,240,250,,250,600,SBD
3,Eden Hill,M,1999-01-05,21,Wraps,MR-O,97,100,260,265,-275,265,115,122.5,-130,122.5,200,210,-212.5,,210,597.5,SBD
4,Aidan Pazin,M,1991-11-03,29,Wraps,MR-O,94.8,100,170,180,190,190,130,135,140,140,220,230,240,,240,570,SBD
5,David Bosner,M,1990-08-22,30,Wraps,MR-O,95.3,100,165,175,185,185,87.5,95,100,100,200,210,220,,220,505,SBD
1,Ben Crombie,M,1977-02-09,43,Wraps,MR-O,123.7,125,220,235,245,245,145,150,155,155,260,270,-280,,270,670,SBD
2,Jason Williams #1,M,1992-06-19,28,Wraps,MR-O,115,125,150,165,170,170,110,120,-130,120,165,185,-210,,185,475,SBD
1,Tyron Cullen,M,1993-05-26,27,Wraps,MR-O,168.9,140+,345,360,370,370,185,195,200,200,285,307.5,330,,330,900,SBD
1,Luis Dowd,M,2002-11-12,18,Wraps,MR-SJ,65.8,67.5,125,135,140,140,100,105,-107.5,105,165,180,190,,190,435,SBD
1,Joshua Dominello,M,2002-01-24,18,Wraps,MR-SJ,72,75,165,170,180,180,92.5,97.5,-105,97.5,172.5,182.5,187.5,,187.5,465,SBD
1,Connor Swords,M,2001-10-15,19,Wraps,MR-SJ,80.7,82.5,185,195,200,200,115,-120,120,120,200,215,220,,220,540,SBD
2,Charles Pike,M,2001-04-09,19,Wraps,MR-SJ,78.8,82.5,175,-185,-190,175,100,105,110,110,220,230,-240,,230,515,SBD
3,Sean Welch,M,2002-01-20,18,Wraps,MR-SJ,79.7,82.5,112.5,122.5,130,130,80,85,90,90,150,165,-175,,165,385,SBD
1,Johnathon Ringhoff,M,1992-02-10,28,Raw,MR-O,118.7,125,,,,,170,-180,-185,170,225,250,276,285,276,446,BD
1,John Orchard,M,1987-12-18,,Raw,MR-O,131.7,140,,,,,175,185,195,195,,,,,,195,B
1,Lyle Davis,M,1994-07-14,26,Raw,MR-O,98,100,,,,,,,,,260,280,-300,,280,280,D
