Division,WeightClassKg,Place,Name,Team,BodyweightKg,Best3SquatKg,Best3BenchKg,Best3DeadliftKg,TotalKg,Equipment,Event,Sex,BirthDate
Boys,51.71,1,John Wyatt #1,Fort Worth Chisholm Trail,51.07,115.67,65.77,120.2,301.64,Single-ply,SBD,M,
Boys,51.71,2,Kaden Dees,Aledo,50.71,90.72,61.23,106.59,258.55,Single-ply,SBD,M,
Boys,51.71,3,Isaac Hernandez,Aledo,50.17,90.72,49.9,104.33,244.94,Single-ply,SBD,M,
Boys,51.71,4,Creed Lynch,Granbury,46.45,83.91,45.36,102.06,231.33,Single-ply,SBD,M,
Boys,51.71,5,Nick Brown,Fort Worth Boswell,51.71,70.31,45.36,90.72,206.38,Single-ply,SBD,M,
Boys,55.79,1,Ethan Jackson,Springtown,52.98,147.42,70.31,151.95,369.68,Single-ply,SBD,M,
Boys,55.79,2,Braedan Knoll,Azle,55.7,138.35,83.91,142.88,365.14,Single-ply,SBD,M,
Boys,55.79,3,Denim Fields #1,Azle,54.88,127.01,65.77,136.08,328.85,Single-ply,SBD,M,
Boys,55.79,4,Logan Claunch,Fort Worth Boswell,54.98,124.74,74.84,122.47,322.05,Single-ply,SBD,M,
Boys,55.79,5,John Davis #9,White Settlement Brewer,55.61,115.67,68.04,122.47,306.17,Single-ply,SBD,M,
Boys,55.79,6,Jayce Glenn,Granbury,53.07,74.84,61.23,102.06,238.14,Single-ply,SBD,M,
Boys,55.79,7,Nick Fulton,Saginaw,54.52,83.91,36.29,99.79,219.99,Single-ply,SBD,M,
Boys,59.87,1,Mason Miranda,Granbury,58.69,136.08,88.45,167.83,392.36,Single-ply,SBD,M,
Boys,59.87,2,Jesus Calderon,Saginaw,58.6,131.54,81.65,163.29,376.48,Single-ply,SBD,M,
Boys,59.87,3,Keir Curb,White Settlement Brewer,59.06,140.61,58.97,156.49,356.07,Single-ply,SBD,M,
Boys,59.87,4,Carlos Zamora,Fort Worth Boswell,57.33,131.54,79.38,142.88,353.8,Single-ply,SBD,M,
Boys,59.87,5,JoJo Talavera,Glen Rose,58.79,124.74,63.5,142.88,331.12,Single-ply,SBD,M,
Boys,59.87,DQ,Wyatt Walters,Glen Rose,58.33,115.67,,,,Single-ply,SBD,M,
Boys,59.87,DQ,Brandon Justice,Saginaw,59.33,127.01,,,,Single-ply,SBD,M,
Boys,59.87,DQ,Kameron Sinclair,White Settlement Brewer,59.33,170.1,,,,Single-ply,SBD,M,
Boys,67.13,1,Steven Burns,Aledo,65.86,190.51,106.59,188.24,485.34,Single-ply,SBD,M,
Boys,67.13,2,Hunter Martin #2,Azle,64.86,192.78,97.52,176.9,467.2,Single-ply,SBD,M,
Boys,67.13,3,Djonny Mukuna,Saginaw,65.68,176.9,99.79,188.24,464.93,Single-ply,SBD,M,
Boys,67.13,4,Jackie Vong,Saginaw,64.23,156.49,102.06,201.85,460.4,Single-ply,SBD,M,
Boys,67.13,5,Jd Rosales,Fort Worth Boswell,67.13,154.22,104.33,161.03,419.57,Single-ply,SBD,M,
Boys,67.13,6,Jacob Densmore,Fort Worth Chisholm Trail,65.68,142.88,102.06,165.56,410.5,Single-ply,SBD,M,
Boys,67.13,7,Austin Richey,Springtown,66.32,145.15,99.79,147.42,392.36,Single-ply,SBD,M,
Boys,67.13,8,Issac Richards,White Settlement Brewer,63.23,138.35,81.65,158.76,378.75,Single-ply,SBD,M,
Boys,67.13,9,Cory Courtney,Fort Worth Chisholm Trail,64.95,133.81,74.84,158.76,367.41,Single-ply,SBD,M,
Boys,74.84,1,Alec Boyle,White Settlement Brewer,74.66,188.24,124.74,174.63,487.61,Single-ply,SBD,M,
Boys,74.84,2,Daquan Brown,Fort Worth Chisholm Trail,68.95,174.63,92.99,210.92,478.54,Single-ply,SBD,M,
Boys,74.84,3,Tucker Judge,Granbury,74.66,181.44,106.59,185.97,474,Single-ply,SBD,M,
Boys,74.84,4,Sean Verdun,Saginaw,72.39,174.63,111.13,176.9,462.66,Single-ply,SBD,M,
Boys,74.84,5,Jaden Fisher,Fort Worth Chisholm Trail,73.57,161.03,102.06,197.31,460.4,Single-ply,SBD,M,
Boys,74.84,6,Michael McCoy,Springtown,71.58,151.95,113.4,185.97,451.32,Single-ply,SBD,M,
Boys,74.84,7,Moise Mpala,Fort Worth Chisholm Trail,68.22,158.76,106.59,183.7,449.06,Single-ply,SBD,M,
Boys,74.84,8,Kevin Nyguen,Azle,71.67,165.56,99.79,183.7,449.06,Single-ply,SBD,M,
Boys,74.84,9,Eli Valencia,Aledo,73.03,161.03,106.59,181.44,449.06,Single-ply,SBD,M,
Boys,74.84,10,Dawson Jones,Springtown,70.94,142.88,113.4,188.24,444.52,Single-ply,SBD,M,
Boys,74.84,11,Tyrant Wair,Fort Worth Boswell,70.76,158.76,99.79,170.1,428.64,Single-ply,SBD,M,
Boys,74.84,12,Matthew Locke,Glen Rose,74.66,156.49,95.25,170.1,421.84,Single-ply,SBD,M,
Boys,74.84,13,Triston Black,Glen Rose,71.21,149.69,88.45,129.27,367.41,Single-ply,SBD,M,
Boys,82.1,1,Montrail Cushionberry,White Settlement Brewer,81.56,192.78,142.88,204.12,539.77,Single-ply,SBD,M,
Boys,82.1,2,Luke Mankowski,Granbury,81.56,197.31,111.13,206.38,514.83,Single-ply,SBD,M,
Boys,82.1,3,Shone Mombo,Fort Worth Chisholm Trail,81.65,183.7,106.59,204.12,494.42,Single-ply,SBD,M,
Boys,82.1,4,Garrett Gouyton,Azle,81.1,181.44,117.93,192.78,492.15,Single-ply,SBD,M,
Boys,82.1,5,Parker Anderson,Fort Worth Boswell,81.92,170.1,106.59,199.58,476.27,Single-ply,SBD,M,
Boys,82.1,6,Carson Morningstar,Fort Worth Boswell,79.02,181.44,97.52,192.78,471.74,Single-ply,SBD,M,
Boys,82.1,7,Lane Hale,Aledo,82.1,181.44,122.47,163.29,467.2,Single-ply,SBD,M,
Boys,82.1,8,Robert Harden,Fort Worth Chisholm Trail,78.11,142.88,102.06,208.65,453.59,Single-ply,SBD,M,
Boys,82.1,9,Travis Jones,White Settlement Brewer,79.29,161.03,111.13,170.1,442.25,Single-ply,SBD,M,
Boys,82.1,10,Bryce Hollingsworth,Fort Worth Chisholm Trail,78.56,149.69,88.45,181.44,419.57,Single-ply,SBD,M,
Boys,82.1,11,Cole Walker,Springtown,78.65,151.95,95.25,156.49,403.7,Single-ply,SBD,M,
Boys,82.1,12,Zander Key,Glen Rose,79.83,154.22,83.91,163.29,401.43,Single-ply,SBD,M,
Boys,89.81,1,Grayson Hawley,Aledo,84.64,188.24,127.01,201.85,517.1,Single-ply,SBD,M,
Boys,89.81,2,Tyler Luangraj,Saginaw,87.72,201.85,111.13,204.12,517.1,Single-ply,SBD,M,
Boys,89.81,3,Noah Loth,Aledo,86.18,195.04,120.2,192.78,508.02,Single-ply,SBD,M,
Boys,89.81,4,Baker Butler,Glen Rose,88,199.58,97.52,199.58,496.68,Single-ply,SBD,M,
Boys,89.81,5,Tony Ramos #3,Glen Rose,89.54,195.04,111.13,190.51,496.68,Single-ply,SBD,M,
Boys,89.81,6,Miles Wiggins,Azle,83.73,163.29,104.33,158.76,426.38,Single-ply,SBD,M,
Boys,89.81,7,Robert Orr #1,White Settlement Brewer,89.45,149.69,102.06,163.29,415.04,Single-ply,SBD,M,
Boys,99.79,1,Brandon Morris,Granbury,98.34,242.67,165.56,247.21,655.44,Single-ply,SBD,M,
Boys,99.79,2,Marcus Moseley,Glen Rose,96.71,226.8,120.2,199.58,546.58,Single-ply,SBD,M,
Boys,99.79,3,Danny Simmons,Fort Worth Chisholm Trail,98.07,201.85,115.67,195.04,512.56,Single-ply,SBD,M,
Boys,99.79,4,Garrett Palmer,Fort Worth Boswell,98.88,208.65,124.74,172.37,505.76,Single-ply,SBD,M,
Boys,99.79,5,Chris Wright,Aledo,98.43,185.97,108.86,206.38,501.22,Single-ply,SBD,M,
Boys,99.79,6,Robert Cedillo,Fort Worth Boswell,95.25,181.44,115.67,195.04,492.15,Single-ply,SBD,M,
Boys,99.79,7,Sammy Aldriedge,Glen Rose,94.08,183.7,113.4,181.44,478.54,Single-ply,SBD,M,
Boys,99.79,8,Jacob Esskew,Springtown,94.26,174.63,113.4,183.7,471.74,Single-ply,SBD,M,
Boys,99.79,9,Korbyn Martin,Springtown,94.8,167.83,117.93,181.44,467.2,Single-ply,SBD,M,
Boys,99.79,10,Logan Fabrizius,Springtown,96.07,190.51,97.52,176.9,464.93,Single-ply,SBD,M,
Boys,99.79,DQ,Issac Vielma,White Settlement Brewer,98.16,,,,,Single-ply,SBD,M,
Boys,99.79,DQ,Michael Bass,Granbury,92.62,201.85,,,,Single-ply,SBD,M,
Boys,109.77,1,Marcello Deanda,Azle,108.5,233.6,158.76,233.6,625.96,Single-ply,SBD,M,
Boys,109.77,2,Riley Norton,Azle,107.86,238.14,122.47,219.99,580.6,Single-ply,SBD,M,
Boys,109.77,3,Kolten Trevino,Granbury,100.33,226.8,138.35,213.19,578.33,Single-ply,SBD,M,
Boys,109.77,4,Jordan McDaniel,Saginaw,102.06,201.85,129.27,204.12,535.24,Single-ply,SBD,M,
Boys,109.77,5,David Alvarez,Fort Worth Boswell,105.96,199.58,127.01,204.12,530.7,Single-ply,SBD,M,
Boys,109.77,6,Adam Lindsey,Saginaw,103.24,197.31,104.33,226.8,528.44,Single-ply,SBD,M,
Boys,109.77,7,Breydon Blackwell,Fort Worth Boswell,101.24,204.12,113.4,192.78,510.29,Single-ply,SBD,M,
Boys,109.77,8,Hunter Baldwin,Springtown,108.41,174.63,120.2,204.12,498.95,Single-ply,SBD,M,
Boys,109.77,DQ,Klein Peyton,Glen Rose,104.96,172.37,,,,Single-ply,SBD,M,
Boys,124.74,1,Alex Trejo,Saginaw,117.48,249.48,140.61,258.55,648.64,Single-ply,SBD,M,
Boys,124.74,2,Carter Miller,Aledo,118.84,238.14,142.88,215.46,596.47,Single-ply,SBD,M,
Boys,124.74,3,Israel Ramirez,Granbury,113.76,219.99,151.95,215.46,587.4,Single-ply,SBD,M,
Boys,124.74,4,Caanan Revelle,Azle,115.76,233.6,142.88,208.65,585.13,Single-ply,SBD,M,
Boys,124.74,5,Jason Harris,Azle,119.93,244.94,113.4,195.04,553.38,Single-ply,SBD,M,
Boys,124.74,6,Derrick Franklin,White Settlement Brewer,113.49,215.46,117.93,204.12,537.51,Single-ply,SBD,M,
Boys,124.74,7,Case Mason,Saginaw,113.85,197.31,113.4,219.99,530.7,Single-ply,SBD,M,
Boys,124.74+,1,Cole Hilliard,Azle,152.32,283.5,142.88,231.33,657.71,Single-ply,SBD,M,
Boys,124.74+,2,Alex Sutton,Granbury,128.73,233.6,147.42,240.4,621.42,Single-ply,SBD,M,
Boys,124.74+,3,Jahir Orocio,Granbury,131.9,247.21,138.35,210.92,596.47,Single-ply,SBD,M,
Boys,124.74+,4,Cameron Hutcherson,White Settlement Brewer,138.16,235.87,127.01,233.6,596.47,Single-ply,SBD,M,
Boys,124.74+,5,Juan Gracia,Fort Worth Chisholm Trail,125.46,231.33,127.01,219.99,578.33,Single-ply,SBD,M,
Boys,124.74+,6,Gunnar Allen,Aledo,130.36,204.12,138.35,231.33,573.79,Single-ply,SBD,M,
Boys,124.74+,7,Alex Striejewske,Aledo,134.9,188.24,133.81,219.99,542.04,Single-ply,SBD,M,
Boys,124.74+,DQ,Cody Brackeen,Springtown,127.55,,,,,Single-ply,SBD,M,
